…
Below is a table summarizing the number of items ordered from aisle. In
total, there are 134 aisles, with fresh vegetables and fresh fruits
holding the most items ordered by far.

``` r
instacart %>% 
  count(aisle) %>% 
  arrange(desc(n))
```

    ## # A tibble: 134 × 2
    ##   aisle                           n
    ##   <chr>                       <int>
    ## 1 fresh vegetables           150609
    ## 2 fresh fruits               150473
    ## 3 packaged vegetables fruits  78493
    ## 4 yogurt                      55240
    ## 5 packaged cheese             41699
    ## # … with 129 more rows
    ## # ℹ Use `print(n = ...)` to see more rows
…
